{
    "users": [
        {
            "id": "francis",
            "password": "grondin",
            "activities": [],
            "teams": [],
            "leagues": []
        },
        {
            "id": "mohamed",
            "password": "bgd",
            "activities": [],
            "teams": [],
            "leagues": []
        },
        {
            "id": "jeremy",
            "password": "beauregard",
            "activities": [],
            "teams": [],
            "leagues": []
        }
    ],
    "teams": [
        {
            "name": "Les rattons",
            "sportType": "beach volleyball"
        },
        {
            "name": "Les aigles",
            "sportType": "beach volleyball"
        },
        {
            "name": "Les caribous",
            "sportType": "beach volleyball"
        },
        {
            "name": "Les rebelles",
            "sportType": "beach volleyball"
        },
        {
            "name": "Les huckies",
            "sportType": "ultimate frisbee"
        },
        {
            "name": "Les requins",
            "sportType": "ultimate frisbee"
        },
        {
            "name": "Les castors",
            "sportType": "ultimate frisbee"
        },
        {
            "name": "Les bulldogs",
            "sportType": "ultimate frisbee"
        },
        {
            "name": "Les remparts",
            "sportType": "ultimate frisbee"
        },
        {
            "name": "Les lézards",
            "sportType": "hockey cosom"
        },
        {
            "name": "Les harfangs",
            "sportType": "hockey cosom"
        },
        {
            "name": "Les raptors",
            "sportType": "hockey cosom"
        }
    ]
}